{
	"variables": [],
	"info": {
		"name": "DemoApp",
		"_postman_id": "9c423777-5c6a-b1b1-4ef8-e18b66dcedce",
		"description": "",
		"schema": "https://schema.getpostman.com/json/collection/v2.0.0/collection.json"
	},
	"item": [
		{
			"name": "SQL",
			"description": "",
			"item": [
				{
					"name": "GET: http://localhost:53982/api/sqlperson",
					"request": {
						"url": "http://localhost:53983/api/sqlperson/",
						"method": "GET",
						"header": [],
						"body": {},
						"description": ""
					},
					"response": []
				},
				{
					"name": "GET by id: http://localhost:53982/api/sqlperson",
					"request": {
						"url": "http://localhost:53983/api/sqlperson/1",
						"method": "GET",
						"header": [],
						"body": {},
						"description": ""
					},
					"response": []
				},
				{
					"name": "POST: http://localhost:53982/api/sqlperson",
					"request": {
						"url": "http://localhost:53983/api/sqlperson/",
						"method": "POST",
						"header": [
							{
								"key": "Content-Type",
								"value": "application/json",
								"description": ""
							}
						],
						"body": {
							"mode": "raw",
							"raw": "\n    {\n        \"id\": 1,\n        \"firstName\": \"Tomasz\",\n        \"lastName\": \"Liptak\"\n    }"
						},
						"description": ""
					},
					"response": []
				},
				{
					"name": "PUT: http://localhost:53982/api/sqlperson",
					"request": {
						"url": "http://localhost:53983/api/sqlperson/5",
						"method": "PUT",
						"header": [
							{
								"key": "Content-Type",
								"value": "application/json",
								"description": ""
							}
						],
						"body": {
							"mode": "raw",
							"raw": "{\n    \"firstName\": \"Tomasz-tmp\",\n    \"lastName\": \"Liptak-tmp\"\n}"
						},
						"description": ""
					},
					"response": []
				},
				{
					"name": "DELETE: http://localhost:53982/api/sqlperson",
					"request": {
						"url": "http://localhost:53983/api/sqlperson/3",
						"method": "DELETE",
						"header": [
							{
								"key": "Content-Type",
								"value": "application/json",
								"description": ""
							}
						],
						"body": {
							"mode": "raw",
							"raw": ""
						},
						"description": ""
					},
					"response": []
				}
			]
		},
		{
			"name": "Blob",
			"description": "",
			"item": [
				{
					"name": "PUT: http://localhost:53983/api/blob/test-file",
					"request": {
						"url": "http://localhost:53983/api/blob/test-file2",
						"method": "PUT",
						"header": [],
						"body": {
							"mode": "raw",
							"raw": "Content of blob file (file2) updated"
						},
						"description": ""
					},
					"response": []
				},
				{
					"name": "GET http://localhost:53983/api/blob",
					"request": {
						"url": "http://localhost:53983/api/blob",
						"method": "GET",
						"header": [],
						"body": {},
						"description": ""
					},
					"response": []
				},
				{
					"name": "GET byId: http://localhost:53983/api/blob/test-file2",
					"request": {
						"url": "http://localhost:53983/api/blob/test-file2",
						"method": "GET",
						"header": [],
						"body": {},
						"description": ""
					},
					"response": [
						{
							"id": "b259fbb8-096b-4954-ab60-5f3b5e19091e",
							"name": "GET byId: http://localhost:53983/api/blob/test-file2",
							"originalRequest": {
								"url": "http://localhost:53983/api/blob/test-file2",
								"method": "GET",
								"header": [],
								"body": {}
							},
							"status": "OK",
							"code": 200,
							"_postman_previewlanguage": "plainText",
							"_postman_previewtype": "text",
							"header": [
								{
									"name": "content-type",
									"key": "content-type",
									"value": "application/octet-stream",
									"description": "The mime type of this content"
								},
								{
									"name": "date",
									"key": "date",
									"value": "Thu, 14 Sep 2017 21:11:18 GMT",
									"description": "The date and time that the message was sent"
								},
								{
									"name": "server",
									"key": "server",
									"value": "Kestrel",
									"description": "A name for the server"
								},
								{
									"name": "transfer-encoding",
									"key": "transfer-encoding",
									"value": "chunked",
									"description": "The form of encoding used to safely transfer the entity to the user. Currently defined methods are: chunked, compress, deflate, gzip, identity."
								}
							],
							"cookie": [],
							"responseTime": 207,
							"body": ""
						}
					]
				}
			]
		},
		{
			"name": "Cosmos",
			"description": "",
			"item": [
				{
					"name": "POST: http://localhost:53983/api/CosmosDb",
					"request": {
						"url": "http://localhost:53983/api/CosmosDb",
						"method": "POST",
						"header": [
							{
								"key": "Content-Type",
								"value": "application/json",
								"description": ""
							}
						],
						"body": {
							"mode": "raw",
							"raw": "{\n    \"id\": \"Id4\",\n    \"firstName\": \"Tomasz\",\n    \"lastName\": \"Liptak\"\n}"
						},
						"description": ""
					},
					"response": []
				},
				{
					"name": "PUT: http://localhost:53983/api/CosmosDb",
					"request": {
						"url": "http://localhost:53983/api/CosmosDb/Id7",
						"method": "PUT",
						"header": [
							{
								"key": "Content-Type",
								"value": "application/json",
								"description": ""
							}
						],
						"body": {
							"mode": "raw",
							"raw": "{\n    \"id\": \"Id7\",\n    \"firstName\": \"Tomasz-updated\",\n    \"lastName\": \"Liptak\"\n}"
						},
						"description": ""
					},
					"response": []
				},
				{
					"name": "DELETE: http://localhost:53983/api/CosmosDb",
					"request": {
						"url": "http://localhost:53983/api/CosmosDb/Id7",
						"method": "DELETE",
						"header": [
							{
								"key": "Content-Type",
								"value": "application/json",
								"description": ""
							}
						],
						"body": {
							"mode": "raw",
							"raw": ""
						},
						"description": ""
					},
					"response": []
				},
				{
					"name": "GET by Id: http://localhost:53983/api/CosmosDb",
					"request": {
						"url": "http://localhost:53983/api/CosmosDb/Id6",
						"method": "GET",
						"header": [
							{
								"key": "Content-Type",
								"value": "application/json",
								"description": ""
							}
						],
						"body": {
							"mode": "raw",
							"raw": ""
						},
						"description": ""
					},
					"response": []
				}
			]
		}
	]
}